simdbg_demo/sim/simdbg_demo.vcd
$date
  2026-05-12
$end
$version
  ATLAS sim debug fixture
$end
$timescale 1 ns $end
$scope module tb_simdbg_demo $end
$var wire 1 ! clk $end
$var wire 1 " rst_n $end
$var wire 1 # start $end
$var wire 4 $ target [3:0] $end
$scope module dut $end
$var wire 1 % done $end
$var wire 1 & match $end
$var wire 4 ' count [3:0] $end
$var wire 1 ( active $end
$scope module u_counter $end
$var wire 4 ) count [3:0] $end
$upscope $end
$scope module u_matcher $end
$var wire 1 * match $end
$upscope $end
$upscope $end
$upscope $end
$enddefinitions $end
#0
0!
0"
0#
b0011 $
0%
0&
b0000 '
0(
b0000 )
0*
#5
1!
#10
0!
1"
#15
1!
1#
1(
#20
0!
0#
#25
1!
b0001 '
b0001 )
#30
0!
#35
1!
b0010 '
b0010 )
#40
0!
#45
1!
b0011 '
b0011 )
1&
1*
#50
0!
#55
1!
0(
1%
#60
0!
0%
